[{
    "guid": "1a42ab90-45ca-4351-bac7-9898ce3b08e4",
    "isActive": false,
    "children": [{
        "guid": "8d09ded4-dfa1-45c5-9524-a15483286ea4",
        "isActive": false,
        "children": [{
            "guid": "ee24547f-af89-45f3-88b1-4b411df1d498",
            "isActive": true,
            "children": [{
                    "guid": "6850b0cc-2ac1-43bb-8b66-cfae336c91e0",
                    "isActive": false,
                    "children": []
                },
                {
                    "guid": "bbafa34d-8fa5-4102-bd10-048fffdac52c",
                    "isActive": true,
                    "children": []
                },
                {
                    "guid": "bbafa34d-8fa5-4102-bd10-048fffdac52c",
                    "isActive": true,
                    "children": []
                }
            ]
        }]
    }]
}]